<?xml version="1.0" encoding="UTF-8" standalone="no"?>
<!-- Created with Inkscape (http://www.inkscape.org/) -->

<svg
   xmlns:dc="http://purl.org/dc/elements/1.1/"
   xmlns:cc="http://creativecommons.org/ns#"
   xmlns:rdf="http://www.w3.org/1999/02/22-rdf-syntax-ns#"
   xmlns:svg="http://www.w3.org/2000/svg"
   xmlns="http://www.w3.org/2000/svg"
   xmlns:xlink="http://www.w3.org/1999/xlink"
   xmlns:sodipodi="http://sodipodi.sourceforge.net/DTD/sodipodi-0.dtd"
   xmlns:inkscape="http://www.inkscape.org/namespaces/inkscape"
   id="svg6656"
   version="1.1"
   inkscape:version="0.91 r13725"
   width="1800"
   height="1125"
   viewBox="0 0 1800 1125"
   sodipodi:docname="4.svg">
  <metadata
     id="metadata6662">
    <rdf:RDF>
      <cc:Work
         rdf:about="">
        <dc:format>image/svg+xml</dc:format>
        <dc:type
           rdf:resource="http://purl.org/dc/dcmitype/StillImage" />
        <dc:title></dc:title>
      </cc:Work>
    </rdf:RDF>
  </metadata>
  <defs
     id="defs6660" />
  <sodipodi:namedview
     pagecolor="#ffffff"
     bordercolor="#666666"
     borderopacity="1"
     objecttolerance="10"
     gridtolerance="10"
     guidetolerance="10"
     inkscape:pageopacity="0"
     inkscape:pageshadow="2"
     inkscape:window-width="1536"
     inkscape:window-height="841"
     id="namedview6658"
     showgrid="false"
     inkscape:zoom="0.49968879"
     inkscape:cx="644.8684"
     inkscape:cy="641.71225"
     inkscape:window-x="-8"
     inkscape:window-y="-8"
     inkscape:window-maximized="1"
     inkscape:current-layer="svg6656" />
  <image
     sodipodi:absref="C:\xampp\htdocs\masterExp\img\14\4.png"
     xlink:href="4.png"
     y="0"
     x="0"
     id="image6664"
     preserveAspectRatio="none"
     height="1125"
     width="1800" />
  <path
     style="fill:none;fill-rule:evenodd;stroke:#000000;stroke-width:7;stroke-linecap:round;stroke-linejoin:round;stroke-opacity:1;stroke-miterlimit:4;stroke-dasharray:none"
     d="m 192.11958,56.334844 26.01619,12.007474 39.02429,0 23.01433,-4.002491 28.01743,5.003114 34.02118,10.006228 32.01993,-2.001246 69.04297,9.005606 38.02367,6.003736 33.02055,21.013075 73.04547,56.03488 14.00872,10.00623 6.00373,-10.00623 11.00685,-6.00374 25.01557,1.00063 0,-20.01246 4.00249,-24.01495 -1.00062,-15.00934 -2.00124,-6.003735 19.01183,-5.003114"
     id="path7206"
     inkscape:connector-curvature="0" />
  <path
     style="fill:none;fill-rule:evenodd;stroke:#000000;stroke-width:7;stroke-linecap:round;stroke-linejoin:round;stroke-opacity:1;stroke-miterlimit:4;stroke-dasharray:none"
     d="m 123.07661,205.42764 70.04359,12.00748 56.03488,28.01743 74.04609,47.02928 119.07411,75.04671 113.07038,72.04484 81.05044,41.02553 79.04921,17.01059 88.0548,7.00436"
     id="path7208"
     inkscape:connector-curvature="0" />
  <path
     style="fill:none;fill-rule:evenodd;stroke:#000000;stroke-width:7;stroke-linecap:round;stroke-linejoin:round;stroke-opacity:1;stroke-miterlimit:4;stroke-dasharray:none"
     d="m 874.54433,709.74154 -15.00934,8.00498 -52.03239,-10.00623 -42.02615,-7.00436 -36.02243,-7.00436 -27.01681,-8.00498 -33.02055,-14.00872 -31.01931,-13.0081 -12.00747,-1.00062 -17.01059,0 -26.01619,5.00311 -30.01869,9.00561 -44.0274,-3.00187 -35.0218,-6.00374 -35.0218,-3.00186 -31.01931,-2.00125 -21.01307,-4.00249 -16.00997,-7.00436 -10.00623,-15.00934 -39.02429,-66.04111 -17.01058,-20.01245 -34.02118,-13.0081 -36.02242,-11.00685 -16.00997,-4.00249 -30.01868,4.00249 -37.02304,4.00249 -40.02492,-5.00311 -26.016189,-11.00686 -32.01993,-4.00249 -12.007473,-4.00249"
     id="path7210"
     inkscape:connector-curvature="0" />
</svg>
