<?xml version="1.0" encoding="UTF-8" standalone="no"?>
<!-- Created with Inkscape (http://www.inkscape.org/) -->

<svg
   xmlns:dc="http://purl.org/dc/elements/1.1/"
   xmlns:cc="http://creativecommons.org/ns#"
   xmlns:rdf="http://www.w3.org/1999/02/22-rdf-syntax-ns#"
   xmlns:svg="http://www.w3.org/2000/svg"
   xmlns="http://www.w3.org/2000/svg"
   xmlns:xlink="http://www.w3.org/1999/xlink"
   xmlns:sodipodi="http://sodipodi.sourceforge.net/DTD/sodipodi-0.dtd"
   xmlns:inkscape="http://www.inkscape.org/namespaces/inkscape"
   id="svg7212"
   version="1.1"
   inkscape:version="0.91 r13725"
   width="1800"
   height="1125"
   viewBox="0 0 1800 1125"
   sodipodi:docname="5.svg">
  <metadata
     id="metadata7218">
    <rdf:RDF>
      <cc:Work
         rdf:about="">
        <dc:format>image/svg+xml</dc:format>
        <dc:type
           rdf:resource="http://purl.org/dc/dcmitype/StillImage" />
        <dc:title></dc:title>
      </cc:Work>
    </rdf:RDF>
  </metadata>
  <defs
     id="defs7216" />
  <sodipodi:namedview
     pagecolor="#ffffff"
     bordercolor="#666666"
     borderopacity="1"
     objecttolerance="10"
     gridtolerance="10"
     guidetolerance="10"
     inkscape:pageopacity="0"
     inkscape:pageshadow="2"
     inkscape:window-width="1536"
     inkscape:window-height="841"
     id="namedview7214"
     showgrid="false"
     inkscape:zoom="0.49968879"
     inkscape:cx="933.16285"
     inkscape:cy="592.55852"
     inkscape:window-x="-8"
     inkscape:window-y="-8"
     inkscape:window-maximized="1"
     inkscape:current-layer="svg7212" />
  <image
     sodipodi:absref="C:\xampp\htdocs\masterExp\img\14\5.png"
     xlink:href="5.png"
     y="0"
     x="0"
     id="image7220"
     preserveAspectRatio="none"
     height="1125"
     width="1800" />
  <path
     style="fill:none;fill-rule:evenodd;stroke:#000000;stroke-width:7;stroke-linecap:round;stroke-linejoin:round;stroke-opacity:1;stroke-miterlimit:4;stroke-dasharray:none"
     d="m 791.74528,536.32075 29.71699,99.05661 19.10377,63.67924 21.93396,49.52831 19.10377,19.81132 19.10378,9.90566 31.83962,5.66037 38.20755,4.95283 29.00943,13.4434 14.85845,8.49057 21.2265,26.17924 31.132,31.83962 26.1793,28.30189 19.8113,24.0566 4.2453,14.8585"
     id="path7764"
     inkscape:connector-curvature="0" />
  <path
     style="fill:none;fill-rule:evenodd;stroke:#000000;stroke-width:7;stroke-linecap:round;stroke-linejoin:round;stroke-opacity:1;stroke-miterlimit:4;stroke-dasharray:none"
     d="m 1172.0519,358.72641 -14.5047,3.18397 -53.0661,-11.32076 -34.316,7.07547 -3.8915,-8.49056 -7.4293,-12.38208 -2.4764,-4.24528 -6.7217,-2.83019 -4.599,-7.78302 -12.7359,-26.53302 -44.22168,8.49057 6.36793,-10.96698 2.47641,-13.4434 1.76887,-21.93396 1.76887,-12.38208 1.4151,-4.95283 5.6604,-9.55188 9.1981,-12.73585 7.783,-5.66038 14.1509,-1.06132 14.5048,-12.73585 9.1981,-12.73585 -0.3538,-6.36792 -7.0755,-14.50472 6.0142,-22.28774 5.6604,-15.21226 0,-10.25944 8.8443,-1.41509 6.3679,-4.24528 6.3679,-4.24529 6.7217,0 5.3067,-7.783015 0,0 0,-0.353773"
     id="path7766"
     inkscape:connector-curvature="0" />
  <path
     style="fill:none;fill-rule:evenodd;stroke:#000000;stroke-width:7;stroke-linecap:round;stroke-linejoin:round;stroke-opacity:1;stroke-miterlimit:4;stroke-dasharray:none"
     d="m 564.35126,314.49553 -4.00249,-8.00498 -0.50031,-7.50468 0.50031,-5.50342 -28.01744,-31.01931 -14.50903,-17.01059 -12.50778,-16.51027 -7.50467,-13.50841 -8.5053,-6.50405 -12.00747,-3.00187 -20.01246,2.00125 -16.00996,-1.50094 -97.06041,-25.51588 -12.00748,-7.50467 -8.50529,-11.50716 -7.00436,-9.50592 -4.5028,-6.00373 -7.50468,-4.50281 -38.02366,-11.50716 -22.51402,-9.50592 -10.50653,-3.50218 -4.50281,-0.50031 -18.51152,8.5053 -13.0081,8.50529 -17.01058,8.5053 -19.51215,8.00498 0,0.50031"
     id="path7768"
     inkscape:connector-curvature="0" />
</svg>
